<?xml version="1.0" encoding="UTF-8" standalone="no"?>
<svg
   xmlns:dc="http://purl.org/dc/elements/1.1/"
   xmlns:cc="http://creativecommons.org/ns#"
   xmlns:rdf="http://www.w3.org/1999/02/22-rdf-syntax-ns#"
   xmlns:svg="http://www.w3.org/2000/svg"
   xmlns="http://www.w3.org/2000/svg"
   xmlns:sodipodi="http://sodipodi.sourceforge.net/DTD/sodipodi-0.dtd"
   xmlns:inkscape="http://www.inkscape.org/namespaces/inkscape"
   width="64"
   height="64"
   viewBox="0 0 16.933333 16.933334"
   version="1.1"
   id="svg8"
   inkscape:version="1.0.2 (e86c870879, 2021-01-15, custom)"
   sodipodi:docname="icon.svg"
   inkscape:export-filename="/home/william/dev/upol/latrunculi/gtk/icons/icon.png"
   inkscape:export-xdpi="192"
   inkscape:export-ydpi="192">
  <defs
     id="defs2" />
  <sodipodi:namedview
     id="base"
     pagecolor="#ffffff"
     bordercolor="#666666"
     borderopacity="1.0"
     inkscape:pageopacity="0.0"
     inkscape:pageshadow="2"
     inkscape:zoom="12.989424"
     inkscape:cx="20.603123"
     inkscape:cy="29.190285"
     inkscape:document-units="mm"
     inkscape:current-layer="svg8"
     inkscape:document-rotation="0"
     showgrid="true"
     units="px"
     showguides="false"
     gridtolerance="10000"
     inkscape:snap-grids="true"
     inkscape:window-width="1920"
     inkscape:window-height="1026"
     inkscape:window-x="0"
     inkscape:window-y="0"
     inkscape:window-maximized="1">
    <inkscape:grid
       type="xygrid"
       id="grid971" />
  </sodipodi:namedview>
  <metadata
     id="metadata5">
    <rdf:RDF>
      <cc:Work
         rdf:about="">
        <dc:format>image/svg+xml</dc:format>
        <dc:type
           rdf:resource="http://purl.org/dc/dcmitype/StillImage" />
        <dc:title />
      </cc:Work>
    </rdf:RDF>
  </metadata>
  <path
     style="opacity:1;fill:#ede0d4;fill-opacity:1;stroke:none;stroke-width:0.346001;stroke-miterlimit:4;stroke-dasharray:none;stroke-opacity:1"
     d="M 0,16.933332 V 0 h 16.933332"
     id="path1003" />
  <path
     style="opacity:1;fill:#7f5539;fill-opacity:1;stroke:none;stroke-width:0.346001;stroke-miterlimit:4;stroke-dasharray:none;stroke-opacity:1"
     d="M 16.933332,0 V 16.933332 H 0"
     id="rect998" />
  <path
     style="opacity:1;fill:#e6e6e6;fill-opacity:1;stroke:#b3b3b3;stroke-width:0.415445;stroke-miterlimit:4;stroke-dasharray:none;stroke-opacity:1"
     d="M -11.973674,6.6714439 C -15.658211,6.671444 -18.645118,3.6845368 -18.645118,0 c 0,-3.6845368 2.986907,-6.671444 6.671444,-6.6714439"
     id="path996"
     transform="matrix(-0.70710678,-0.70710678,-0.70710678,0.70710678,0,0)" />
  <path
     style="opacity:1;fill:#4c4c4f;fill-opacity:1;stroke:#404040;stroke-width:0.415445;stroke-miterlimit:4;stroke-dasharray:none;stroke-opacity:1"
     d="m -11.973674,-6.6714439 c 3.6845368,-1e-7 6.6714441,2.9869071 6.6714441,6.6714439 0,3.6845368 -2.9869073,6.671444 -6.6714441,6.6714439"
     id="path989"
     transform="matrix(-0.70710678,-0.70710678,-0.70710678,0.70710678,0,0)" />
</svg>
